Statistical Modeling Assignment 1 – SM25-student
…
      Author

               Jackson Calhoun 

      Published

        April 4, 2025

Problem 1

babynames |> 
  filter(n > 40, n <84) |> 
  select(-prop)

# A tibble: 151,461 × 4
    year sex   name         n
   <dbl> <chr> <chr>    <int>
 1  1880 F     Harriett    83
 2  1880 F     Mable       83
 3  1880 F     Myra        83
 4  1880 F     Sophie      83
 5  1880 F     Tillie      83
 6  1880 F     Isabel      81
 7  1880 F     Sylvia      81
 8  1880 F     Carolyn     80
 9  1880 F     Isabelle    80
10  1880 F     Leila       80
# ℹ 151,451 more rows

babynames |> 
  filter(nchar(name) == 6)

# A tibble: 546,519 × 5
    year sex   name       n    prop
   <dbl> <chr> <chr>  <int>   <dbl>
 1  1880 F     Minnie  1746 0.0179 
 2  1880 F     Bertha  1320 0.0135 
 3  1880 F     Martha  1040 0.0107 
 4  1880 F     Nellie   995 0.0102 
 5  1880 F     Carrie   949 0.00972
 6  1880 F     Bessie   796 0.00816
 7  1880 F     Jennie   793 0.00812
 8  1880 F     Hattie   769 0.00788
 9  1880 F     Mattie   704 0.00721
10  1880 F     Lillie   647 0.00663
# ℹ 546,509 more rows

babynames |> 
  mutate(total = n/prop) |> 
  filter(year == 1989)

# A tibble: 23,773 × 6
    year sex   name          n   prop    total
   <dbl> <chr> <chr>     <int>  <dbl>    <dbl>
 1  1989 F     Jessica   47885 0.0240 1991890.
 2  1989 F     Ashley    47587 0.0239 1991890.
 3  1989 F     Brittany  37788 0.0190 1991890.
 4  1989 F     Amanda    36828 0.0185 1991890.
 5  1989 F     Sarah     27792 0.0140 1991890.
 6  1989 F     Samantha  24791 0.0124 1991890.
 7  1989 F     Jennifer  23995 0.0120 1991890.
 8  1989 F     Stephanie 22767 0.0114 1991890.
 9  1989 F     Lauren    21061 0.0106 1991889.
10  1989 F     Elizabeth 20296 0.0102 1991890.
# ℹ 23,763 more rows

babynames |>
  summarize(total = sum(n), .by = year)

# A tibble: 138 × 2
    year  total
   <dbl>  <int>
 1  1880 201484
 2  1881 192696
 3  1882 221533
 4  1883 216946
 5  1884 243462
 6  1885 240854
 7  1886 255317
 8  1887 247394
 9  1888 299473
10  1889 288946
# ℹ 128 more rows

Problem 2

filter not select

babynames |> 
  filter(n >100)

# A tibble: 230,074 × 5
    year sex   name          n   prop
   <dbl> <chr> <chr>     <int>  <dbl>
 1  1880 F     Mary       7065 0.0724
 2  1880 F     Anna       2604 0.0267
 3  1880 F     Emma       2003 0.0205
 4  1880 F     Elizabeth  1939 0.0199
 5  1880 F     Minnie     1746 0.0179
 6  1880 F     Margaret   1578 0.0162
 7  1880 F     Ida        1472 0.0151
 8  1880 F     Alice      1414 0.0145
 9  1880 F     Bertha     1320 0.0135
10  1880 F     Sarah      1288 0.0132
# ℹ 230,064 more rows

Nothing. Maybe don’t put a space after the - though…

babynames |>
  select(-year)

# A tibble: 1,924,665 × 4
   sex   name          n   prop
   <chr> <chr>     <int>  <dbl>
 1 F     Mary       7065 0.0724
 2 F     Anna       2604 0.0267
 3 F     Emma       2003 0.0205
 4 F     Elizabeth  1939 0.0199
 5 F     Minnie     1746 0.0179
 6 F     Margaret   1578 0.0162
 7 F     Ida        1472 0.0151
 8 F     Alice      1414 0.0145
 9 F     Bertha     1320 0.0135
10 F     Sarah      1288 0.0132
# ℹ 1,924,655 more rows

too many =

babynames |> 
  mutate(name_length = nchar(name))

# A tibble: 1,924,665 × 6
    year sex   name          n   prop name_length
   <dbl> <chr> <chr>     <int>  <dbl>       <int>
 1  1880 F     Mary       7065 0.0724           4
 2  1880 F     Anna       2604 0.0267           4
 3  1880 F     Emma       2003 0.0205           4
 4  1880 F     Elizabeth  1939 0.0199           9
 5  1880 F     Minnie     1746 0.0179           6
 6  1880 F     Margaret   1578 0.0162           8
 7  1880 F     Ida        1472 0.0151           3
 8  1880 F     Alice      1414 0.0145           5
 9  1880 F     Bertha     1320 0.0135           6
10  1880 F     Sarah      1288 0.0132           5
# ℹ 1,924,655 more rows

add filter, “M”

babynames |> 
  filter(sex == "M") |> 
  select(-prop)

# A tibble: 786,372 × 4
    year sex   name        n
   <dbl> <chr> <chr>   <int>
 1  1880 M     John     9655
 2  1880 M     William  9532
 3  1880 M     James    5927
 4  1880 M     Charles  5348
 5  1880 M     George   5126
 6  1880 M     Frank    3242
 7  1880 M     Joseph   2632
 8  1880 M     Thomas   2534
 9  1880 M     Henry    2444
10  1880 M     Robert   2415
# ℹ 786,362 more rows

year unduly repeated

babynames |> 
  select(year, sex)

# A tibble: 1,924,665 × 2
    year sex  
   <dbl> <chr>
 1  1880 F    
 2  1880 F    
 3  1880 F    
 4  1880 F    
 5  1880 F    
 6  1880 F    
 7  1880 F    
 8  1880 F    
 9  1880 F    
10  1880 F    
# ℹ 1,924,655 more rows

Nothing. Though it is overly repetative.

babynames |> 
  group_by(n) |> 
  summarize(ave = mean(n))

# A tibble: 13,691 × 2
       n   ave
   <int> <dbl>
 1     5     5
 2     6     6
 3     7     7
 4     8     8
 5     9     9
 6    10    10
 7    11    11
 8    12    12
 9    13    13
10    14    14
# ℹ 13,681 more rows
…
